{
 "absolute_value": 0,
 "align_labels_right": 0,
 "creation": "2022-07-22 15:29:42.441803",
 "custom_format": 0,
 "default_print_language": "en",
 "disabled": 0,
 "doc_type": "Generic Bill",
 "docstatus": 0,
 "doctype": "Print Format",
 "font": "Default",
 "format_data": "[{\"fieldname\": \"print_heading_template\", \"fieldtype\": \"Custom HTML\", \"options\": \"\\n<div class=\\\"hfmts_page_head\\\">\\n    <img class=\\\"right\\\" src=\\\"/assets/uppsala/hfmts/logo.svg\\\">\\n</div>\\n<div style=\\\"clear: right;\\\"></div>\\n\"}, {\"fieldtype\": \"Section Break\", \"label\": \"\"}, {\"fieldtype\": \"Column Break\"}, {\"fieldname\": \"_custom_html\", \"print_hide\": 0, \"label\": \"Custom HTML\", \"fieldtype\": \"HTML\", \"options\": \"{%- set svg_bill = doc.get_bill() -%}\\n<br>\\n<!-- extra spacing required to align qr-bill to bottom -->\\n<div style=\\\"margin-top: 145mm;\\\">&nbsp;</div>\\n<!-- Render Swiss QR bill -->\\n{{ svg_bill }}\"}]",
 "idx": 0,
 "line_breaks": 0,
 "modified": "2022-07-22 15:36:46.516498",
 "modified_by": "Administrator",
 "module": "Uppsala",
 "name": "Generic Bill",
 "owner": "Administrator",
 "print_format_builder": 0,
 "print_format_type": "Jinja",
 "raw_printing": 0,
 "show_section_headings": 0,
 "standard": "Yes"
}