{
 "custom_fields": [],
 "custom_perms": [],
 "doctype": "Student Bill",
 "property_setters": [
  {
   "_assign": null,
   "_comments": null,
   "_liked_by": null,
   "_user_tags": null,
   "creation": "2022-06-10 14:07:04.894238",
   "default_value": null,
   "doc_type": "Student Bill",
   "docstatus": 0,
   "doctype_or_field": "DocType",
   "field_name": null,
   "idx": 0,
   "modified": "2022-06-10 14:07:04.894238",
   "modified_by": "jonas.amstutz@medizintechnik-hf.ch",
   "name": "Student Bill-main-default_print_format",
   "owner": "jonas.amstutz@medizintechnik-hf.ch",
   "parent": null,
   "parentfield": null,
   "parenttype": null,
   "property": "default_print_format",
   "property_type": "Data",
   "row_name": null,
   "value": "Bill"
  },
  {
   "_assign": null,
   "_comments": null,
   "_liked_by": null,
   "_user_tags": null,
   "creation": "2022-06-10 13:41:50.055517",
   "default_value": null,
   "doc_type": "Student Bill",
   "docstatus": 0,
   "doctype_or_field": "DocField",
   "field_name": "enrollment_level",
   "idx": 0,
   "modified": "2022-06-10 13:44:39.451627",
   "modified_by": "Administrator",
   "name": "Student Bill-enrollment_level-in_list_view",
   "owner": "Administrator",
   "parent": null,
   "parentfield": null,
   "parenttype": null,
   "property": "in_list_view",
   "property_type": "Check",
   "row_name": null,
   "value": "1"
  },
  {
   "_assign": null,
   "_comments": null,
   "_liked_by": null,
   "_user_tags": null,
   "creation": "2022-06-10 13:41:50.044406",
   "default_value": null,
   "doc_type": "Student Bill",
   "docstatus": 0,
   "doctype_or_field": "DocField",
   "field_name": "enrollment_term",
   "idx": 0,
   "modified": "2022-06-10 13:44:39.439561",
   "modified_by": "Administrator",
   "name": "Student Bill-enrollment_term-in_list_view",
   "owner": "Administrator",
   "parent": null,
   "parentfield": null,
   "parenttype": null,
   "property": "in_list_view",
   "property_type": "Check",
   "row_name": null,
   "value": "1"
  },
  {
   "_assign": null,
   "_comments": null,
   "_liked_by": null,
   "_user_tags": null,
   "creation": "2022-06-10 13:41:50.006105",
   "default_value": null,
   "doc_type": "Student Bill",
   "docstatus": 0,
   "doctype_or_field": "DocField",
   "field_name": "refnum",
   "idx": 0,
   "modified": "2022-06-10 13:44:39.426635",
   "modified_by": "Administrator",
   "name": "Student Bill-refnum-in_list_view",
   "owner": "Administrator",
   "parent": null,
   "parentfield": null,
   "parenttype": null,
   "property": "in_list_view",
   "property_type": "Check",
   "row_name": null,
   "value": "1"
  },
  {
   "_assign": null,
   "_comments": null,
   "_liked_by": null,
   "_user_tags": null,
   "creation": "2022-06-10 13:41:49.990202",
   "default_value": null,
   "doc_type": "Student Bill",
   "docstatus": 0,
   "doctype_or_field": "DocField",
   "field_name": "status",
   "idx": 0,
   "modified": "2022-06-10 13:44:39.411312",
   "modified_by": "Administrator",
   "name": "Student Bill-status-in_list_view",
   "owner": "Administrator",
   "parent": null,
   "parentfield": null,
   "parenttype": null,
   "property": "in_list_view",
   "property_type": "Check",
   "row_name": null,
   "value": "1"
  },
  {
   "_assign": null,
   "_comments": null,
   "_liked_by": null,
   "_user_tags": null,
   "creation": "2022-06-10 13:41:50.022848",
   "default_value": null,
   "doc_type": "Student Bill",
   "docstatus": 0,
   "doctype_or_field": "DocField",
   "field_name": "enrollment_student_first_name",
   "idx": 0,
   "modified": "2022-06-10 13:44:39.398870",
   "modified_by": "Administrator",
   "name": "Student Bill-enrollment_student_first_name-in_list_view",
   "owner": "Administrator",
   "parent": null,
   "parentfield": null,
   "parenttype": null,
   "property": "in_list_view",
   "property_type": "Check",
   "row_name": null,
   "value": "1"
  },
  {
   "_assign": null,
   "_comments": null,
   "_liked_by": null,
   "_user_tags": null,
   "creation": "2022-06-10 13:41:50.032941",
   "default_value": null,
   "doc_type": "Student Bill",
   "docstatus": 0,
   "doctype_or_field": "DocField",
   "field_name": "enrollment_student_last_name",
   "idx": 0,
   "modified": "2022-06-10 13:44:39.379048",
   "modified_by": "Administrator",
   "name": "Student Bill-enrollment_student_last_name-in_list_view",
   "owner": "Administrator",
   "parent": null,
   "parentfield": null,
   "parenttype": null,
   "property": "in_list_view",
   "property_type": "Check",
   "row_name": null,
   "value": "0"
  }
 ],
 "sync_on_migrate": 1
}