{
 "actions": [],
 "allow_rename": 1,
 "autoname": "BILL-.######",
 "creation": "2021-12-10 15:00:01.746338",
 "doctype": "DocType",
 "editable_grid": 1,
 "engine": "InnoDB",
 "field_order": [
  "enrollment",
  "status",
  "enrollment_student_first_name",
  "enrollment_term",
  "column_break_5",
  "refnum",
  "use_billing_address",
  "enrollment_student_last_name",
  "enrollment_level",
  "section_break_9",
  "bill_date",
  "bill_type",
  "column_break_11",
  "bill_date_due",
  "date_stored",
  "section_break_fljgp",
  "bill_title",
  "column_break_rlscy",
  "additional_information",
  "section_break_12",
  "positions",
  "section_break_licfs",
  "calculate_total",
  "column_break_qfkgx",
  "total_description",
  "column_break_pdppm",
  "total_amount"
 ],
 "fields": [
  {
   "fieldname": "enrollment",
   "fieldtype": "Link",
   "label": "Enrollment",
   "options": "Enrollment"
  },
  {
   "fieldname": "status",
   "fieldtype": "Select",
   "in_list_view": 1,
   "in_standard_filter": 1,
   "label": "Status",
   "options": "Open\nClosed"
  },
  {
   "default": "0",
   "fieldname": "refnum",
   "fieldtype": "Data",
   "in_list_view": 1,
   "in_standard_filter": 1,
   "label": "Reference Number",
   "read_only": 1
  },
  {
   "fetch_from": "enrollment.student_first_name",
   "fieldname": "enrollment_student_first_name",
   "fieldtype": "Data",
   "in_list_view": 1,
   "in_standard_filter": 1,
   "label": "First Name",
   "read_only": 1
  },
  {
   "fetch_from": "enrollment.student_last_name",
   "fieldname": "enrollment_student_last_name",
   "fieldtype": "Data",
   "in_list_view": 1,
   "in_standard_filter": 1,
   "label": "Last Name",
   "read_only": 1
  },
  {
   "fetch_from": "enrollment.term",
   "fieldname": "enrollment_term",
   "fieldtype": "Link",
   "in_list_view": 1,
   "in_standard_filter": 1,
   "label": "Term",
   "options": "Term",
   "read_only": 1
  },
  {
   "fetch_from": "enrollment.level",
   "fieldname": "enrollment_level",
   "fieldtype": "Link",
   "in_list_view": 1,
   "in_standard_filter": 1,
   "label": "Level",
   "options": "Level",
   "read_only": 1
  },
  {
   "allow_bulk_edit": 1,
   "fieldname": "positions",
   "fieldtype": "Table",
   "label": "Positions",
   "options": "Student Bill Position"
  },
  {
   "fieldname": "calculate_total",
   "fieldtype": "Button",
   "label": "Calculate Total Amount"
  },
  {
   "default": "0",
   "description": "If checked, use the billing address defined for given student. Use students normal address otherwise.",
   "fieldname": "use_billing_address",
   "fieldtype": "Check",
   "label": "Use seperate billing address?"
  },
  {
   "fieldname": "section_break_9",
   "fieldtype": "Section Break"
  },
  {
   "default": "Today",
   "fieldname": "bill_date",
   "fieldtype": "Date",
   "label": "Bill Date"
  },
  {
   "fieldname": "bill_date_due",
   "fieldtype": "Date",
   "label": "Bill Date Due",
   "read_only": 1
  },
  {
   "fieldname": "section_break_12",
   "fieldtype": "Section Break"
  },
  {
   "fieldname": "column_break_11",
   "fieldtype": "Column Break"
  },
  {
   "fieldname": "column_break_5",
   "fieldtype": "Column Break"
  },
  {
   "fieldname": "bill_title",
   "fieldtype": "Data",
   "label": "Title"
  },
  {
   "default": "Rechnung",
   "fieldname": "bill_type",
   "fieldtype": "Select",
   "label": "Type",
   "options": "Rechnung\n1. Mahnung\n2. Mahnung"
  },
  {
   "description": "Wird in QR-Rechnung unter Zus\u00e4tzliche Informationen angezeigt.",
   "fieldname": "additional_information",
   "fieldtype": "Data",
   "label": "Additional Information"
  },
  {
   "fieldname": "date_stored",
   "fieldtype": "Datetime",
   "label": "Last stored"
  },
  {
   "fieldname": "section_break_fljgp",
   "fieldtype": "Section Break"
  },
  {
   "fieldname": "column_break_rlscy",
   "fieldtype": "Column Break"
  },
  {
   "fieldname": "section_break_licfs",
   "fieldtype": "Section Break"
  },
  {
   "default": "Total",
   "fieldname": "total_description",
   "fieldtype": "Data",
   "label": "Amount Description"
  },
  {
   "fieldname": "column_break_pdppm",
   "fieldtype": "Column Break"
  },
  {
   "fieldname": "column_break_qfkgx",
   "fieldtype": "Section Break"
  },
  {
   "bold": 1,
   "fieldname": "total_amount",
   "fieldtype": "Currency",
   "in_list_view": 1,
   "label": "Total Amount"
  }
 ],
 "index_web_pages_for_search": 1,
 "links": [],
 "modified": "2023-06-23 10:29:53.680242",
 "modified_by": "Administrator",
 "module": "Uppsala",
 "name": "Student Bill",
 "naming_rule": "Expression (old style)",
 "owner": "Administrator",
 "permissions": [
  {
   "create": 1,
   "delete": 1,
   "email": 1,
   "export": 1,
   "print": 1,
   "read": 1,
   "report": 1,
   "role": "System Manager",
   "share": 1,
   "write": 1
  }
 ],
 "sort_field": "modified",
 "sort_order": "DESC",
 "states": [],
 "title_field": "enrollment_student_last_name"
}