{
 "actions": [],
 "allow_rename": 1,
 "autoname": "TTR-.####",
 "creation": "2022-09-10 20:53:54.310330",
 "doctype": "DocType",
 "editable_grid": 1,
 "engine": "InnoDB",
 "field_order": [
  "time_table",
  "school_class",
  "term",
  "level",
  "process_time_table",
  "status_section",
  "html_status",
  "statistics_section",
  "html_stats",
  "processing_output_section",
  "html_output",
  "results",
  "fold_10",
  "advanced_settings_section",
  "verbosity",
  "skip_pdf",
  "config_file"
 ],
 "fields": [
  {
   "fieldname": "time_table",
   "fieldtype": "Attach",
   "in_list_view": 1,
   "label": "Time Table Excel File"
  },
  {
   "fieldname": "school_class",
   "fieldtype": "Link",
   "in_list_view": 1,
   "label": "School Class",
   "options": "School Class"
  },
  {
   "fieldname": "term",
   "fieldtype": "Link",
   "in_list_view": 1,
   "label": "Term",
   "options": "Term"
  },
  {
   "fieldname": "process_time_table",
   "fieldtype": "Button",
   "label": "Process Time Table"
  },
  {
   "fieldname": "processing_output_section",
   "fieldtype": "Section Break",
   "label": "Processing Output"
  },
  {
   "fieldname": "html_output",
   "fieldtype": "HTML"
  },
  {
   "fieldname": "statistics_section",
   "fieldtype": "Section Break",
   "label": "Statistics"
  },
  {
   "fieldname": "html_stats",
   "fieldtype": "HTML"
  },
  {
   "fieldname": "results",
   "fieldtype": "Long Text",
   "hidden": 1
  },
  {
   "fieldname": "advanced_settings_section",
   "fieldtype": "Section Break",
   "label": "Advanced Settings"
  },
  {
   "default": "Info",
   "fieldname": "verbosity",
   "fieldtype": "Select",
   "label": "Verbosity Level",
   "options": "Info\nDebug"
  },
  {
   "default": "0",
   "fieldname": "skip_pdf",
   "fieldtype": "Check",
   "label": "Skip PDF Rendering"
  },
  {
   "fieldname": "config_file",
   "fieldtype": "Code",
   "label": "Config",
   "read_only": 1
  },
  {
   "fieldname": "fold_10",
   "fieldtype": "Fold"
  },
  {
   "fieldname": "level",
   "fieldtype": "Link",
   "in_list_view": 1,
   "label": "Level",
   "options": "Level"
  },
  {
   "fieldname": "status_section",
   "fieldtype": "Section Break",
   "label": "Status"
  },
  {
   "fieldname": "html_status",
   "fieldtype": "HTML"
  }
 ],
 "index_web_pages_for_search": 1,
 "links": [],
 "modified": "2023-10-24 13:41:34.555052",
 "modified_by": "Administrator",
 "module": "Uppsala",
 "name": "Time Table Ripper",
 "naming_rule": "Expression (old style)",
 "owner": "Administrator",
 "permissions": [
  {
   "create": 1,
   "delete": 1,
   "email": 1,
   "export": 1,
   "print": 1,
   "read": 1,
   "report": 1,
   "role": "System Manager",
   "share": 1,
   "write": 1
  }
 ],
 "sort_field": "modified",
 "sort_order": "DESC",
 "states": []
}