{
 "add_total_row": 0,
 "columns": [],
 "creation": "2021-08-30 19:54:50.209866",
 "disable_prepared_report": 0,
 "disabled": 0,
 "docstatus": 0,
 "doctype": "Report",
 "filters": [],
 "idx": 0,
 "is_standard": "Yes",
 "letter_head": "HFMTS1",
 "modified": "2023-08-29 13:06:12.449891",
 "modified_by": "Administrator",
 "module": "Uppsala",
 "name": "Grade Overview",
 "owner": "Administrator",
 "prepared_report": 0,
 "query": "SELECT\n    *\nFROM\n  `tabCourse Enrollment`\n;",
 "ref_doctype": "Assessment",
 "report_name": "Grade Overview",
 "report_type": "Script Report",
 "roles": [
  {
   "role": "System Manager"
  }
 ]
}