{
 "actions": [],
 "creation": "2021-09-17 13:39:57.616221",
 "doctype": "DocType",
 "editable_grid": 1,
 "engine": "InnoDB",
 "field_order": [
  "course_execution",
  "course_execution_course_description"
 ],
 "fields": [
  {
   "fieldname": "course_execution",
   "fieldtype": "Link",
   "in_list_view": 1,
   "label": "Course Execution",
   "options": "Course Execution"
  },
  {
   "fetch_from": "course_execution.course_description",
   "fieldname": "course_execution_course_description",
   "fieldtype": "Data",
   "in_list_view": 1,
   "in_standard_filter": 1,
   "label": "Description",
   "read_only": 1
  }
 ],
 "index_web_pages_for_search": 1,
 "istable": 1,
 "links": [],
 "modified": "2021-09-17 14:22:24.729932",
 "modified_by": "Administrator",
 "module": "Uppsala",
 "name": "Course Enrollment",
 "owner": "Administrator",
 "permissions": [],
 "sort_field": "modified",
 "sort_order": "DESC",
 "track_changes": 1
}