"Data Import Template"
"Table:","Course Execution"
""
""
"Notes:"
"Please do not change the template headings."
"First data column must be blank."
"If you are uploading new records, leave the ""name"" (ID) column blank."
"If you are uploading new records, ""Naming Series"" becomes mandatory, if present."
"Only mandatory fields are necessary for new records. You can delete non-mandatory columns if you wish."
"For updating, you can update only selective columns."
"You can only upload upto 5000 records in one go. (may be less in some cases)"
""
"DocType:","Course Execution","","","",""
"Column Labels:","ID","Course","Course Description","Term","Level"
"Column Name:","name","course","course_description","term","level"
"Mandatory:","Yes","No","No","No","No"
"Type:","Data","Link","Data","Link","Link"
"Info:","","Valid Course","","Valid Term","Valid Level"
"Start entering data below this line"
"","""COUEX-00000143""","COU-00028","Englisch A2","WS21/22","Sem4"
"","""COUEX-00000142""","COU-00027","Englisch B2","WS21/22","Sem4"
"","""COUEX-00000141""","COU-00005","Englisch B1","WS21/22","Sem4"
"","""COUEX-00000140""","COU-00027","Englisch B2","WS21/22","Sem2"
"","""COUEX-00000139""","COU-00005","Englisch B1","WS21/22","Sem2"
"","""COUEX-00000138""","COU-00014","Elektrotechnik","Ja21/22","VDP"
"","""COUEX-00000137""","COU-00007","Technische Mathematik","Ja21/22","VDP"
"","""COUEX-00000008""","COU-00005","Englisch","Ja21/22","VDP"
"","""COUEX-00000136""","COU-00019","Medizinisches Basiswissen","Ja21/22","VDP"
"","""COUEX-00000011""","COU-00009","Technische Physik","WS21/22","Sem2"
"","""COUEX-00000009""","COU-00007","Technische Mathematik","WS21/22","Sem2"
"","""COUEX-00000010""","COU-00008","Technische Chemie","WS21/22","Sem2"
"","""COUEX-00000013""","COU-00019","Medizinisches Basiswissen","WS21/22","Sem2"
"","""COUEX-00000012""","COU-00013","Computertechnik","WS21/22","Sem2"
"","""COUEX-00000022""","COU-00005","Englisch","WS22/23","Sem2"
"","""COUEX-00000023""","COU-00007","Technische Mathematik","WS22/23","Sem2"
"","""COUEX-00000024""","COU-00008","Technische Chemie","WS22/23","Sem2"
"","""COUEX-00000025""","COU-00009","Technische Physik","WS22/23","Sem2"
"","""COUEX-00000026""","COU-00013","Computertechnik","WS22/23","Sem2"
"","""COUEX-00000027""","COU-00019","Medizinisches Basiswissen","WS22/23","Sem2"
"","""COUEX-00000028""","COU-00005","Englisch","SO23","Sem3"
"","""COUEX-00000029""","COU-00007","Technische Mathematik","SO23","Sem3"
"","""COUEX-00000030""","COU-00008","Technische Chemie","SO23","Sem3"
"","""COUEX-00000031""","COU-00009","Technische Physik","SO23","Sem3"
"","""COUEX-00000032""","COU-00014","Elektrotechnik","SO23","Sem3"
"","""COUEX-00000033""","COU-00015","Eingebettete Systeme","SO23","Sem3"
"","""COUEX-00000034""","COU-00019","Medizinisches Basiswissen","SO23","Sem3"
"","""COUEX-00000035""","COU-00005","Englisch","WS23/24","Sem4"
"","""COUEX-00000036""","COU-00010","Volks- und Betriebswirtschaft","WS23/24","Sem4"
"","""COUEX-00000037""","COU-00011","CAD Grundlagen","WS23/24","Sem4"
"","""COUEX-00000038""","COU-00004","LabView","WS23/24","Sem4"
"","""COUEX-00000039""","COU-00012","Programmieren","WS23/24","Sem4"
"","""COUEX-00000040""","COU-00016","Digitaltechnik","WS23/24","Sem4"
"","""COUEX-00000041""","COU-00020","Medizinische Messtechnik","WS23/24","Sem4"
"","""COUEX-00000042""","COU-00008","Technische Chemie","WS23/24","Sem4"
"","""COUEX-00000043""","COU-00016","Digitaltechnik","SO24","Sem5"
"","""COUEX-00000044""","COU-00017","Elektronik","SO24","Sem5"
"","""COUEX-00000045""","COU-00020","Medizinische Messtechnik","SO24","Sem5"
"","""COUEX-00000046""","COU-00026","Medizintechnik","SO24","Sem5"
"","""COUEX-00000047""","COU-00021","Recht in der Medizintechnik","SO24","Sem5"
"","""COUEX-00000048""","COU-00024","Betriebliche Kommunikation","SO24","Sem5"
"","""COUEX-00000049""","COU-00018","Computernetzwerke","WS24/25","Sem6"
"","""COUEX-00000050""","COU-00020","Medizinische Messtechnik","WS24/25","Sem6"
"","""COUEX-00000051""","COU-00026","Medizintechnik","WS24/25","Sem6"
"","""COUEX-00000052""","COU-00021","Recht in der Medizintechnik","WS24/25","Sem6"
"","""COUEX-00000053""","COU-00023","Spitalbetriebstechnik","WS24/25","Sem6"
"","""COUEX-00000054""","COU-00025","Projektmanagement","WS24/25","Sem6"
"","""COUEX-00000055""","COU-00020","Medizinische Messtechnik","SO25","Sem7"
"","""COUEX-00000056""","COU-00022","Medizininformatik","SO25","Sem7"
"","""COUEX-00000057""","COU-00023","Spitalbetriebstechnik","SO25","Sem7"
"","""COUEX-00000064""","COU-00015","Eingebettete Systeme","SO22","Sem3"
"","""COUEX-00000065""","COU-00014","Elektrotechnik","SO22","Sem3"
"","""COUEX-00000066""","COU-00005","Englisch","SO22","Sem3"
"","""COUEX-00000067""","COU-00019","Medizinisches Basiswissen","SO22","Sem3"
"","""COUEX-00000068""","COU-00008","Technische Chemie","SO22","Sem3"
"","""COUEX-00000069""","COU-00007","Technische Mathematik","SO22","Sem3"
"","""COUEX-00000070""","COU-00009","Technische Physik","SO22","Sem3"
"","""COUEX-00000071""","COU-00024","Betriebliche Kommunikation","SO22","Sem5"
"","""COUEX-00000072""","COU-00016","Digitaltechnik","SO22","Sem5"
"","""COUEX-00000073""","COU-00017","Elektronik","SO22","Sem5"
"","""COUEX-00000074""","COU-00020","Medizinische Messtechnik","SO22","Sem5"
"","""COUEX-00000075""","COU-00026","Medizintechnik","SO22","Sem5"
"","""COUEX-00000076""","COU-00021","Recht in der Medizintechnik","SO22","Sem5"
"","""COUEX-00000077""","COU-00022","Medizininformatik","SO22","Sem7"
"","""COUEX-00000078""","COU-00020","Medizinische Messtechnik","SO22","Sem7"
"","""COUEX-00000079""","COU-00023","Spitalbetriebstechnik","SO22","Sem7"
"","""COUEX-00000080""","COU-00013","Computertechnik","SO21","Sem1"
"","""COUEX-00000082""","COU-00009","Technische Physik","SO21","Sem1"
"","""COUEX-00000083""","COU-00005","Englisch","SO21","Sem1"
"","""COUEX-00000084""","COU-00006","Deutsch","SO21","Sem1"
"","""COUEX-00000085""","COU-00007","Technische Mathematik","SO21","Sem1"
"","""COUEX-00000086""","COU-00015","Eingebettete Systeme","SO21","Sem3"
"","""COUEX-00000087""","COU-00014","Elektrotechnik","SO21","Sem3"
"","""COUEX-00000088""","COU-00005","Englisch","SO21","Sem3"
"","""COUEX-00000089""","COU-00019","Medizinisches Basiswissen","SO21","Sem3"
"","""COUEX-00000090""","COU-00008","Technische Chemie","SO21","Sem3"
"","""COUEX-00000091""","COU-00007","Technische Mathematik","SO21","Sem3"
"","""COUEX-00000092""","COU-00009","Technische Physik","SO21","Sem3"
"","""COUEX-00000093""","COU-00024","Betriebliche Kommunikation","SO21","Sem5"
"","""COUEX-00000094""","COU-00016","Digitaltechnik","SO21","Sem5"
"","""COUEX-00000095""","COU-00017","Elektronik","SO21","Sem5"
"","""COUEX-00000096""","COU-00020","Medizinische Messtechnik","SO21","Sem5"
"","""COUEX-00000097""","COU-00026","Medizintechnik","SO21","Sem5"
"","""COUEX-00000098""","COU-00021","Recht in der Medizintechnik","SO21","Sem5"
"","""COUEX-00000099""","COU-00022","Medizininformatik","SO21","Sem7"
"","""COUEX-00000100""","COU-00020","Medizinische Messtechnik","SO21","Sem7"
"","""COUEX-00000101""","COU-00023","Spitalbetriebstechnik","SO21","Sem7"
"","""COUEX-00000102""","COU-00005","Englisch","WS22/23","Sem4"
"","""COUEX-00000103""","COU-00010","Volks- und Betriebswirtschaft","WS22/23","Sem4"
"","""COUEX-00000104""","COU-00011","CAD Grundlagen","WS22/23","Sem4"
"","""COUEX-00000105""","COU-00004","LabView","WS22/23","Sem4"
"","""COUEX-00000106""","COU-00012","Programmieren","WS22/23","Sem4"
"","""COUEX-00000107""","COU-00016","Digitaltechnik","WS22/23","Sem4"
"","""COUEX-00000108""","COU-00020","Medizinische Messtechnik","WS22/23","Sem4"
"","""COUEX-00000109""","COU-00008","Technische Chemie","WS22/23","Sem4"
"","""COUEX-00000117""","COU-00010","Volks- und Betriebswirtschaft","WS21/22","Sem4"
"","""COUEX-00000118""","COU-00011","CAD Grundlagen","WS21/22","Sem4"
"","""COUEX-00000119""","COU-00004","LabView","WS21/22","Sem4"
"","""COUEX-00000120""","COU-00012","Programmieren","WS21/22","Sem4"
"","""COUEX-00000121""","COU-00016","Digitaltechnik","WS21/22","Sem4"
"","""COUEX-00000122""","COU-00020","Medizinische Messtechnik","WS21/22","Sem4"
"","""COUEX-00000123""","COU-00008","Technische Chemie","WS21/22","Sem4"
"","""COUEX-00000124""","COU-00018","Computernetzwerke","WS22/23","Sem6"
"","""COUEX-00000125""","COU-00020","Medizinische Messtechnik","WS22/23","Sem6"
"","""COUEX-00000126""","COU-00026","Medizintechnik","WS22/23","Sem6"
"","""COUEX-00000127""","COU-00021","Recht in der Medizintechnik","WS22/23","Sem6"
"","""COUEX-00000128""","COU-00023","Spitalbetriebstechnik","WS22/23","Sem6"
"","""COUEX-00000129""","COU-00025","Projektmanagement","WS22/23","Sem6"
"","""COUEX-00000130""","COU-00018","Computernetzwerke","WS21/22","Sem6"
"","""COUEX-00000131""","COU-00020","Medizinische Messtechnik","WS21/22","Sem6"
"","""COUEX-00000132""","COU-00026","Medizintechnik","WS21/22","Sem6"
"","""COUEX-00000133""","COU-00021","Recht in der Medizintechnik","WS21/22","Sem6"
"","""COUEX-00000134""","COU-00023","Spitalbetriebstechnik","WS21/22","Sem6"
"","""COUEX-00000135""","COU-00025","Projektmanagement","WS21/22","Sem6"
