{
 "actions": [],
 "autoname": "LEC-.########",
 "creation": "2021-06-25 09:46:51.893469",
 "doctype": "DocType",
 "editable_grid": 1,
 "engine": "InnoDB",
 "field_order": [
  "date_start",
  "date_end"
 ],
 "fields": [
  {
   "fieldname": "date_start",
   "fieldtype": "Time",
   "label": "Date Start"
  },
  {
   "fieldname": "date_end",
   "fieldtype": "Time",
   "label": "Date End"
  }
 ],
 "index_web_pages_for_search": 1,
 "links": [],
 "modified": "2021-08-17 10:27:17.322252",
 "modified_by": "Administrator",
 "module": "Uppsala",
 "name": "Lecture",
 "owner": "Administrator",
 "permissions": [
  {
   "create": 1,
   "delete": 1,
   "email": 1,
   "export": 1,
   "print": 1,
   "read": 1,
   "report": 1,
   "role": "System Manager",
   "share": 1,
   "write": 1
  }
 ],
 "search_fields": "date_start, date_end",
 "sort_field": "modified",
 "sort_order": "DESC",
 "track_changes": 1
}