{
 "absolute_value": 0,
 "align_labels_right": 0,
 "creation": "2021-09-04 21:39:41.480169",
 "css": ".page_head {\n    /*top right bottom left*/\n    padding: 0;\n    margin: auto;\n    width: 40%;\n}\n\n@font-face {\n  font-family: 'font_hfmts_regular';\n  src: url(/assets/uppsala/fonts/Arial_MT.ttf);\n}\n\n@font-face {\n  font-family: 'font_hfmts_narrow';\n  src: url(/assets/uppsala/fonts/Arial-Narrow_4289.ttf);\n}\n\n\n\n.print-format {\n    padding: 0;\n    margin-top: 27mm;\n    margin-bottom: 0mm;\n    margin-left: 15mm;\n    margin-right: 15mm;\n    font-family: font_hfmts_regular;\n}\n\n\n.section-break {\n    font-size: 12pt;\n}\n\nh1 {\n    font-size: 14pt;\n}\n\nh2 {\n    font-size: 12pt;\n}\n\n.alignleft {\n    float: left;\n    text-align:left;\n    width:33.33333%;\n}\n\n.aligncenter {\n    float: left;\n    text-align:center;\n    width:33.33333%;\n}\n\n.alignright {\n    float: right;\n    text-align:right;\n    width:33.33333%;\n}\n.grade_table {\n    width: 100%;\n    margin: auto;\n    font-size: 10pt;\n}\n.grade_table th {\n    background-color: #c6d9f1;\n}\n.grade_table tr {\n    border-top: solid 1pt;\n    border-bottom: solid 1pt;\n}\n\n.grade_table .up-invisible {\n    border: None;\n}\n\n.zeugnis_head {\n    margin: auto;\n    text-align: center;\n    font-size: 14pt;\n    line-height: 1.4;\n}\n\n.zeugnis_title {\n    margin: auto;\n    text-align: center;\n    font-size: 32pt;\n    font-family: font_hfmts_narrow;\n    color: #808080;\n}\n\n.zeugnis_end {\n    font-size: 10pt;\n}\n\n.page-number {\n    display: none;\n}\n\n.up-footer {\n    margin: auto;\n    text-align: center;\n    font-size: 9pt;\n    font-family: font_hfmts_regular;\n    color: #808080;\n    line-height: 4pt;\n}",
 "custom_format": 0,
 "disabled": 0,
 "doc_type": "Grade Report",
 "docstatus": 0,
 "doctype": "Print Format",
 "font": "Default",
 "font_size": 14,
 "format_data": "[{\"fieldname\": \"print_heading_template\", \"fieldtype\": \"Custom HTML\", \"options\": \"<div class=\\\"page_head\\\">\\n    <img class=\\\"center\\\" src=\\\"/assets/uppsala/hfmts/logo.svg\\\">\\n</div>\\n<div style=\\\"clear: center;\\\"></div>\\n\\n\"}, {\"fieldtype\": \"Section Break\", \"label\": \"\"}, {\"fieldtype\": \"Column Break\"}, {\"fieldname\": \"_custom_html\", \"print_hide\": 0, \"label\": \"Custom HTML\", \"fieldtype\": \"HTML\", \"options\": \"{%- set enrollment = frappe.get_doc('Enrollment', doc.enrollment) -%}\\n{%- set student = frappe.get_doc('Student', enrollment.student) -%}\\n{%- set term = frappe.get_doc('Term', enrollment.term) -%}\\n{%- set level = frappe.get_doc('Level', enrollment.level) -%}\\n{% set scores = doc.get_course_scores() %}\\n{% set signature = doc.issued_by %}\\n{%- set n_pos = scores.data|length -%}\\n\\n\\n<br>\\n<br>\\n<div class=\\\"zeugnis_head\\\">\\n{{ student.last_name }} {{ student.first_name }}, {{ student.zip_code }} {{ student.city }}\\n<div class=\\\"zeugnis_title\\\">Semesterzeugnis</div>\\n<b>Weiterbildung zum/zur dipl. Medizintechniker/in HF</b><br>\\n<br>\\n<br>\\n{{ level.description }} <br>\\n{{ frappe.format_date(term.date_start, 'd. LLLL Y') }} - {{ frappe.format_date(term.date_end, 'd. LLLL Y') }}\\n</div>\\n<br>\\n<br>\\n<table class=\\\"grade_table\\\">\\n    <tr>\\n        <th>F\\u00e4cher</th>\\n        <th>Anwesenheit</th>\\n        <th>Note</th>\\n    </tr>\\n{% for score in scores.data %}\\n    <tr>\\n        <td>\\n            {{ score.course_description }}\\n        </td>\\n        <td>\\n            {{ score.attendance.value }}    \\n        </td>\\n        <td>\\n            {{ score.grade_final }}    \\n        </td>\\n    </tr>\\n{% endfor %}\\n\\n{# Different spacing depending on number of lectures. #}\\n\\n{% if n_pos < 10 %}\\n<tr class=\\\"up-invisible\\\"><td>&nbsp;{# {{ n }} #}</td><td>&nbsp;</td></tr>\\n{% endif %}\\n\\n{% if doc.level_up_granted == \\\"granted\\\" %}\\n<tr class=\\\"up-invisible\\\"><td>Steigungsbedingungen erf\\u00fcllt.</td></tr>\\n{% elif doc.level_up_granted == \\\"provisional\\\" %}\\n<tr class=\\\"up-invisible\\\"><td>Steigungsbedingungen provisorisch erf\\u00fcllt.</td></tr>\\n{% elif doc.level_up_granted == \\\"denied\\\" %}\\n<tr class=\\\"up-invisible\\\"><td>Steigungsbedingungen nicht erf\\u00fcllt.</td></tr>\\n{% else %}\\n<tr class=\\\"up-invisible\\\"><td></td></tr>\\n{% endif %}\\n\\n{# Fill up n positions #}\\n{% for n in range(10-n_pos-2) %}\\n<tr class=\\\"up-invisible\\\"><td>&nbsp;{# {{ n_pos }} {{ n }} #}</td><td>&nbsp;</td></tr>\\n{%endfor%}\\n\\n</table>\\n\\n<div class=\\\"zeugnis_end\\\">\\n<br>\\n<br>\\n<br>\\n<br>\\n<br>\\n<br>\\n<br>\\n{# check https://babel.pocoo.org/en/latest/dates.html for details #}\\nSarnen, {{ frappe.format_date(doc.report_date, 'd. LLLL Y') }} <br/>\\n<br>\\n<b>{{ signature }}</b>\\n</div>\\n<!-- extra spacing required to align footer to bottom -->\\n<div style=\\\"margin-top: 30mm;\\\"></div>\"}, {\"fieldname\": \"_custom_html\", \"print_hide\": 0, \"label\": \"Custom HTML\", \"fieldtype\": \"HTML\", \"options\": \"<div class=\\\"up-footer\\\">\\n    <table>\\n    <tr style=\\\"border-top: solid 1pt #7f7f7f;\\\"><td width=\\\"88%\\\">H\\u00f6here Fachschule Medizintechnik <span style=\\\"color: #0070c0;\\\">\\u2022</span> Grundacherweg 6 <span style=\\\"color: #0070c0;\\\">\\u2022</span> Postfach 831 <span style=\\\"color: #0070c0;\\\">\\u2022</span> CH-6060 Sarnen 2</td><td rowspan=\\\"2\\\" width=\\\"12%\\\"><img width=\\\"95%\\\" src=\\\"/assets/uppsala/hfmts/EduQua_Logo.svg\\\"></td></tr>\\n    <tr><td>Telefon +41 41 660 37 08 <span style=\\\"color: #0070c0;\\\">\\u2022</span> info@medizintechnik-hf.ch <span style=\\\"color: #0070c0;\\\">\\u2022</span> www.medizintechnik-hf.ch</td></tr>\\n    </table>\\n</div>\\n\"}]",
 "idx": 0,
 "line_breaks": 0,
 "margin_bottom": 15.0,
 "margin_left": 15.0,
 "margin_right": 15.0,
 "margin_top": 15.0,
 "modified": "2023-06-09 08:46:58.193687",
 "modified_by": "Administrator",
 "module": "Uppsala",
 "name": "Report Card",
 "owner": "Administrator",
 "page_number": "Hide",
 "print_format_builder": 1,
 "print_format_builder_beta": 0,
 "print_format_type": "Jinja",
 "raw_printing": 0,
 "show_section_headings": 0,
 "standard": "Yes"
}
