{
 "_liked_by": "[]",
 "add_total_row": 0,
 "columns": [],
 "creation": "2023-06-23 10:37:39.565077",
 "disable_prepared_report": 0,
 "disabled": 0,
 "docstatus": 0,
 "doctype": "Report",
 "filters": [],
 "idx": 0,
 "is_standard": "Yes",
 "modified": "2023-06-23 10:45:39.207792",
 "modified_by": "Administrator",
 "module": "Uppsala",
 "name": "Debtor List",
 "owner": "Administrator",
 "prepared_report": 0,
 "query": "SELECT\n    name, bill_date_due, total_amount,\n    enrollment_student_first_name, enrollment_student_last_name\nFROM  `tabStudent Bill`;\n",
 "ref_doctype": "Student Bill",
 "report_name": "Debtor List",
 "report_type": "Script Report",
 "roles": [
  {
   "role": "System Manager"
  }
 ]
}