{
 "actions": [],
 "autoname": "format:EC-{######}",
 "creation": "2023-06-09 09:25:47.908643",
 "default_view": "List",
 "doctype": "DocType",
 "editable_grid": 1,
 "engine": "InnoDB",
 "field_order": [
  "enrollment",
  "column_break_5ahfw",
  "section_break_ywnvv",
  "enrollment_student_first_name",
  "column_break_cqoh4",
  "enrollment_student_last_name",
  "section_break_a7cbk",
  "enrollment_school_class",
  "column_break_2h7tc",
  "enrollment_term",
  "column_break_uotpw",
  "enrollment_level",
  "section_break_12ref",
  "date",
  "column_break_nfdlz",
  "issued_by",
  "section_break_wpgwi",
  "date_stored",
  "section_break_2kg96"
 ],
 "fields": [
  {
   "fieldname": "enrollment",
   "fieldtype": "Link",
   "label": "Enrollment",
   "options": "Enrollment"
  },
  {
   "default": "Today",
   "fieldname": "date",
   "fieldtype": "Date",
   "label": "Date"
  },
  {
   "fetch_from": "enrollment.student_first_name",
   "fieldname": "enrollment_student_first_name",
   "fieldtype": "Data",
   "in_list_view": 1,
   "in_preview": 1,
   "in_standard_filter": 1,
   "label": "First Name",
   "read_only": 1
  },
  {
   "fetch_from": "enrollment.student_last_name",
   "fieldname": "enrollment_student_last_name",
   "fieldtype": "Data",
   "in_list_view": 1,
   "in_preview": 1,
   "in_standard_filter": 1,
   "label": "Last Name",
   "read_only": 1
  },
  {
   "fetch_from": "enrollment.school_class",
   "fieldname": "enrollment_school_class",
   "fieldtype": "Data",
   "in_list_view": 1,
   "in_preview": 1,
   "in_standard_filter": 1,
   "label": "School Class",
   "read_only": 1
  },
  {
   "fetch_from": "enrollment.term",
   "fieldname": "enrollment_term",
   "fieldtype": "Data",
   "in_list_view": 1,
   "in_preview": 1,
   "in_standard_filter": 1,
   "label": "Term",
   "read_only": 1
  },
  {
   "fetch_from": "enrollment.level",
   "fieldname": "enrollment_level",
   "fieldtype": "Data",
   "in_list_view": 1,
   "in_preview": 1,
   "in_standard_filter": 1,
   "label": "Level",
   "read_only": 1
  },
  {
   "fieldname": "column_break_5ahfw",
   "fieldtype": "Column Break"
  },
  {
   "fieldname": "section_break_ywnvv",
   "fieldtype": "Section Break"
  },
  {
   "fieldname": "column_break_cqoh4",
   "fieldtype": "Column Break"
  },
  {
   "fieldname": "section_break_a7cbk",
   "fieldtype": "Section Break"
  },
  {
   "fieldname": "column_break_2h7tc",
   "fieldtype": "Column Break"
  },
  {
   "fieldname": "column_break_uotpw",
   "fieldtype": "Column Break"
  },
  {
   "fieldname": "section_break_12ref",
   "fieldtype": "Section Break"
  },
  {
   "fieldname": "column_break_nfdlz",
   "fieldtype": "Column Break"
  },
  {
   "fieldname": "issued_by",
   "fieldtype": "Data",
   "label": "Issued by"
  },
  {
   "fieldname": "section_break_wpgwi",
   "fieldtype": "Column Break"
  },
  {
   "fieldname": "date_stored",
   "fieldtype": "Datetime",
   "in_list_view": 1,
   "label": "Last stored",
   "read_only": 1
  },
  {
   "fieldname": "section_break_2kg96",
   "fieldtype": "Section Break"
  }
 ],
 "index_web_pages_for_search": 1,
 "links": [],
 "modified": "2023-06-09 14:06:15.598792",
 "modified_by": "Administrator",
 "module": "Uppsala",
 "name": "Enrollment Confirmation",
 "naming_rule": "Expression",
 "owner": "Administrator",
 "permissions": [
  {
   "create": 1,
   "delete": 1,
   "email": 1,
   "export": 1,
   "print": 1,
   "read": 1,
   "report": 1,
   "role": "System Manager",
   "share": 1,
   "write": 1
  }
 ],
 "sort_field": "modified",
 "sort_order": "DESC",
 "states": [],
 "track_changes": 1
}