{
 "add_total_row": 0,
 "columns": [],
 "creation": "2021-08-27 13:53:52.566778",
 "disable_prepared_report": 0,
 "disabled": 0,
 "docstatus": 0,
 "doctype": "Report",
 "filters": [
  {
   "fieldname": "term",
   "fieldtype": "Link",
   "label": "Term",
   "mandatory": 0,
   "wildcard_filter": 0
  }
 ],
 "idx": 0,
 "is_standard": "Yes",
 "letter_head": "HFMTS1",
 "modified": "2021-12-01 06:07:18.307464",
 "modified_by": "Administrator",
 "module": "Uppsala",
 "name": "Grade List",
 "owner": "Administrator",
 "prepared_report": 0,
 "query": "",
 "ref_doctype": "Enrollment",
 "report_name": "Grade List",
 "report_type": "Script Report",
 "roles": [
  {
   "role": "System Manager"
  }
 ]
}
