"Data Import Template"
"Table:","Exam"
""
""
"Notes:"
"Please do not change the template headings."
"First data column must be blank."
"If you are uploading new records, leave the ""name"" (ID) column blank."
"If you are uploading new records, ""Naming Series"" becomes mandatory, if present."
"Only mandatory fields are necessary for new records. You can delete non-mandatory columns if you wish."
"For updating, you can update only selective columns."
"You can only upload upto 5000 records in one go. (may be less in some cases)"
""
"DocType:","Exam","","","","","","","~","Grade","grade","","",""
"Column Labels:","ID","Course Execution","Weight","Course","School Class","Semester","Amended From","","ID","Student","Exam","Student Name","Grade Value"
"Column Name:","name","course_execution","weight","course_execution_course_description","course_execution_semester_execution_school_class_name_short","course_execution_semester_execution_semester_name_short","amended_from","~","name","student","exam","student_full_name","grade_value"
"Mandatory:","Yes","No","No","No","No","No","No","","Yes","No","No","No","No"
"Type:","Data","Link","Float","Data","Data","Data","Link","","Data","Link","Link","Data","Float"
"Info:","","Valid Course Execution","","","","","Valid Exam","","","Valid Student","Valid Exam","",""
"Start entering data below this line"
"","""EXAM-00000003""","COUEX-00000003",1.0,"Physik","Class20","SO21","","","""4554acf57a""","STU-00006","","Alexa Andromeda",4.3
"","","","","","","","","","""80219e36c8""","STU-00004","","Sandra Leblanc",4.65
"","","","","","","","","","""d35a5bd343""","STU-00007","","Benjamin Brandenberg",4.8
"","""EXAM-00000001""","COUEX-00000003",1.0,"Physik","Class20","SO21","","","""1aabaa26b6""","STU-00007","","Benjamin Brandenberg",4.5
"","","","","","","","","","""adf54be79a""","STU-00006","","Alexa Andromeda",5.3
"","","","","","","","","","""8f4b0c9e06""","STU-00004","","Sandra Leblanc",5.4
"","""EXAM-00000002""","COUEX-00000004",1.0,"LabView","Class20","SO21","","","""0aae4933fc""","STU-00006","","Alexa Andromeda",3.5
"","","","","","","","","","""e79921a5c4""","STU-00004","","Sandra Leblanc",3.4
"","","","","","","","","","""50c318684e""","STU-00007","","Benjamin Brandenberg",4.1
