"Data Import Template"
"Table:","Grade Report"
""
""
"Notes:"
"Please do not change the template headings."
"First data column must be blank."
"If you are uploading new records, leave the ""name"" (ID) column blank."
"If you are uploading new records, ""Naming Series"" becomes mandatory, if present."
"Only mandatory fields are necessary for new records. You can delete non-mandatory columns if you wish."
"For updating, you can update only selective columns."
"You can only upload upto 5000 records in one go. (may be less in some cases)"
""
"DocType:","Grade Report","","","","","","~","Grade","grade","","",""
"Column Labels:","ID","Enrollment","Issue Date","Name Principal","Student","Level","","ID","Student","Exam","Student Name","Grade Value"
"Column Name:","name","enrollment","issue_date","name_principal","enrollment_student_full_name","enrollment_semester_execution_level","~","name","student","exam","student_full_name","grade_value"
"Mandatory:","Yes","No","No","No","No","No","","Yes","No","No","No","No"
"Type:","Data","Link","Date","Select","Data","Data","","Data","Link","Link","Data","Float"
"Info:","","Valid Enrollment","dd-mm-yyyy","One of: Alois Amstutz, Eva Maria Amstutz","","","","","Valid Student","Valid Exam","",""
"Start entering data below this line"
"","""GRAREP-000002""","ENR-000001","17-08-2021","Eva Maria Amstutz","Jonas Amstutz","1","","","","","",""
"","""GRAREP-000001""","ENR-000002","17-08-2021","Eva Maria Amstutz","Benjamin Brandenberg","3","","","","","",""
